\select@language {slovak}
\addvspace {10\p@ }
\addvspace {10\p@ }
\contentsline {figure}{\numberline {2.1}{\ignorespaces Priebeh met\IeC {\'o}dy sn\IeC {\'\i }mania pohybu \cite {obrazok_mocap_pipeline}.\relax }}{4}
\contentsline {figure}{\numberline {2.2}{\ignorespaces Model kostry. $P_{1}$-bedr\IeC {\'a} (stred), $P_{2}$-kostr\IeC {\v c}, $P_{3}$-doln\IeC {\'y} chrb\IeC {\'a}t, $P_{4}$-horn\IeC {\'y} chrb\IeC {\'a}t, $P_{5}$-krk, $P_{6}$-hlava, $P_{7}$-\IeC {\v l}av\IeC {\'e} rameno, $P_{8}$-\IeC {\v l}av\IeC {\'a} ruka, $P_{9}$-\IeC {\v l}av\IeC {\'y} lake\IeC {\v t}, $P_{10}$-\IeC {\v l}av\IeC {\'a} dla\IeC {\v n}, $P_{11}$-prav\IeC {\'e} rameno, $P_{12}$-prav\IeC {\'a} ruka, $P_{13}$-prav\IeC {\'y} lake\IeC {\v t}, $P_{14}$-prav\IeC {\'a} dla\IeC {\v n}, $P_{15}$-prav\IeC {\'y} bedrov\IeC {\'y} k\IeC {\'l}b, $P_{16}$-prav\IeC {\'e} koleno, $P_{17}$-prav\IeC {\'a} p\IeC {\"a}ta, $P_{18}$-prav\IeC {\'a} \IeC {\v s}pi\IeC {\v c}ka, $P_{19}$-\IeC {\v l}av\IeC {\'y} bedrov\IeC {\'y} k\IeC {\'l}b, $P_{20}$-\IeC {\v l}av\IeC {\'e} koleno, $P_{21}$-\IeC {\v l}av\IeC {\'a} p\IeC {\"a}ta, $P_{22}$-\IeC {\v l}av\IeC {\'a} \IeC {\v s}pi\IeC {\v c}ka.\relax }}{8}
\contentsline {figure}{\numberline {2.3}{\ignorespaces Sekvencia reprezentovanej ch\IeC {\^o}dze.\relax }}{10}
\contentsline {figure}{\numberline {2.4}{\ignorespaces D\IeC {\'l}\IeC {\v z}ka kroku \IeC {\v l}avej nohy.\relax }}{15}
\contentsline {figure}{\numberline {2.5}{\ignorespaces \IeC {\v S}\IeC {\'\i }rka kroku - poh\IeC {\v l}ad z hora.\relax }}{16}
\contentsline {figure}{\numberline {2.6}{\ignorespaces Variancia hlavy po osi X.\relax }}{18}
\contentsline {figure}{\numberline {2.7}{\ignorespaces Line\IeC {\'a}rna regresia $\mathaccentV {hat}05E{y}$ a stredn\IeC {\'a} hodnota $\mu $.\relax }}{18}
\contentsline {figure}{\numberline {2.8}{\ignorespaces Zr\IeC {\'y}chlenie bedrov\IeC {\'e}ho k\IeC {\'l}bu - p\IeC {\^o}vodn\IeC {\'y} sign\IeC {\'a}l.\relax }}{21}
\contentsline {figure}{\numberline {2.9}{\ignorespaces Zr\IeC {\'y}chlenie bedrov\IeC {\'e}ho k\IeC {\'l}bu - vyhladen\IeC {\'y} sign\IeC {\'a}l.\relax }}{22}
\contentsline {figure}{\numberline {2.10}{\ignorespaces Horizont\IeC {\'a}lna (a) a vertik\IeC {\'a}lna (b) rot\IeC {\'a}cia ramien \cite {obrazok_jeden}.\relax }}{22}
\contentsline {figure}{\numberline {2.11}{\ignorespaces Ve\IeC {\v l}kos\IeC {\v t} vertik\IeC {\'a}lnej rot\IeC {\'a}cie ramien.\relax }}{23}
\contentsline {figure}{\numberline {2.12}{\ignorespaces Vzdialenos\IeC {\v t} piat\relax }}{24}
\contentsline {figure}{\numberline {2.13}{\ignorespaces Ohyb nohy.\relax }}{25}
\contentsline {figure}{\numberline {2.14}{\ignorespaces Ohyb pravej nohy.\relax }}{26}
\contentsline {figure}{\numberline {2.15}{\ignorespaces Diskr\IeC {\'e}tna kos\IeC {\'\i }nusova transform\IeC {\'a}cia sign\IeC {\'a}lov zr\IeC {\'y}chlenia bedier.\relax }}{29}
\contentsline {figure}{\numberline {2.16}{\ignorespaces Uk\IeC {\'a}\IeC {\v z}ka princ\IeC {\'\i }pu PCA met\IeC {\'o}dy.\relax }}{32}
\contentsline {figure}{\numberline {2.17}{\ignorespaces Diagon\IeC {\'a}lna matica reprezentuj\IeC {\'u}ca vypo\IeC {\v c}\IeC {\'\i }tan\IeC {\'e} vlastn\IeC {\'e} \IeC {\v c}\IeC {\'\i }sla.\relax }}{35}
\contentsline {figure}{\numberline {2.18}{\ignorespaces Matica vzdialenost\IeC {\'\i } medzi mestami v USA. \cite {mds2}\relax }}{37}
\contentsline {figure}{\numberline {2.19}{\ignorespaces Mapa miest v USA vytvoren\IeC {\'a} pomocou MDS met\IeC {\'o}dy. \cite {mds2}\relax }}{37}
\addvspace {10\p@ }
\contentsline {figure}{\numberline {3.1}{\ignorespaces N\IeC {\'a}vrh syst\IeC {\'e}mu.\relax }}{42}
\contentsline {figure}{\numberline {3.2}{\ignorespaces Uk\IeC {\'a}\IeC {\v z}ka filtrovania pohybu po rovnej trajekt\IeC {\'o}ri\IeC {\'\i }.\relax }}{43}
\contentsline {figure}{\numberline {3.3}{\ignorespaces Prehr\IeC {\'a}va\IeC {\v c} bvh z\IeC {\'a}znamov.\relax }}{45}
\contentsline {figure}{\numberline {3.4}{\ignorespaces Uk\IeC {\'a}\IeC {\v z}ka n\IeC {\'a}stroja pre analyzovanie ch\IeC {\^o}dze.\relax }}{46}
\contentsline {figure}{\numberline {3.5}{\ignorespaces \IeC {\v S}trukt\IeC {\'u}ra datab\IeC {\'a}zy.\relax }}{48}
\addvspace {10\p@ }
\addvspace {10\p@ }
