\relax 
\catcode `^\active 
\catcode `"\active 
\catcode `'\active 
\catcode `-\active 
\select@language{slovak}
\@writefile{toc}{\select@language{slovak}}
\@writefile{lof}{\select@language{slovak}}
\@writefile{lot}{\select@language{slovak}}
\newlabel{chap:podakovanie}{{}{v}}
\newlabel{chap:abstract_sk}{{}{vi}}
\newlabel{chap:abstract_en}{{}{vii}}
\@writefile{toc}{\contentsline {chapter}{\numberline {1}\IeC {\'U}vod}{1}}
\@writefile{lof}{\addvspace {10\p@ }}
\@writefile{lot}{\addvspace {10\p@ }}
\newlabel{chap:uvod}{{1}{1}}
\citation{temporal_spatial_factors}
\citation{human_classification_gait}
\@writefile{toc}{\contentsline {chapter}{\numberline {2}Anal\IeC {\'y}za \IeC {\v l}udskej ch\IeC {\^o}dze}{3}}
\@writefile{lof}{\addvspace {10\p@ }}
\@writefile{lot}{\addvspace {10\p@ }}
\newlabel{chap:reprezentacia}{{2}{3}}
\@writefile{toc}{\contentsline {section}{\numberline {2.1}Sn\IeC {\'\i }manie pohybu}{3}}
\citation{obrazok_mocap_pipeline}
\citation{obrazok_mocap_pipeline}
\citation{mocap_data}
\citation{mocap_lib_2}
\citation{bvh_stranka}
\@writefile{lof}{\contentsline {figure}{\numberline {2.1}{\ignorespaces Priebeh met\IeC {\'o}dy sn\IeC {\'\i }mania pohybu \cite  {obrazok_mocap_pipeline}.\relax }}{4}}
\providecommand*\caption@xref[2]{\@setref\relax\@undefined{#1}}
\newlabel{img:pipeline_mocap}{{2.1}{4}}
\@writefile{toc}{\contentsline {section}{\numberline {2.2}\IeC {\v S}trukt\IeC {\'u}ra MoCap d\IeC {\'a}t}{4}}
\newlabel{lst:bvh_hierarchy}{{2.1}{5}}
\@writefile{lol}{\contentsline {lstlisting}{\numberline {2.1}Uk\IeC {\'a}\IeC {\v z}ka hierarchickej sekcie bvh s\IeC {\'u}boru.}{5}}
\newlabel{lst:bvh_motion}{{2.2}{6}}
\@writefile{lol}{\contentsline {lstlisting}{\numberline {2.2}Uk\IeC {\'a}\IeC {\v z}ka pohybovej sekcie bvh s\IeC {\'u}boru.}{6}}
\@writefile{toc}{\contentsline {section}{\numberline {2.3}Model kostry}{7}}
\newlabel{section:model_kostry}{{2.3}{7}}
\@writefile{lof}{\contentsline {figure}{\numberline {2.2}{\ignorespaces Model kostry. $P_{1}$-bedr\IeC {\'a} (stred), $P_{2}$-kostr\IeC {\v c}, $P_{3}$-doln\IeC {\'y} chrb\IeC {\'a}t, $P_{4}$-horn\IeC {\'y} chrb\IeC {\'a}t, $P_{5}$-krk, $P_{6}$-hlava, $P_{7}$-\IeC {\v l}av\IeC {\'e} rameno, $P_{8}$-\IeC {\v l}av\IeC {\'a} ruka, $P_{9}$-\IeC {\v l}av\IeC {\'y} lake\IeC {\v t}, $P_{10}$-\IeC {\v l}av\IeC {\'a} dla\IeC {\v n}, $P_{11}$-prav\IeC {\'e} rameno, $P_{12}$-prav\IeC {\'a} ruka, $P_{13}$-prav\IeC {\'y} lake\IeC {\v t}, $P_{14}$-prav\IeC {\'a} dla\IeC {\v n}, $P_{15}$-prav\IeC {\'y} bedrov\IeC {\'y} k\IeC {\'l}b, $P_{16}$-prav\IeC {\'e} koleno, $P_{17}$-prav\IeC {\'a} p\IeC {\"a}ta, $P_{18}$-prav\IeC {\'a} \IeC {\v s}pi\IeC {\v c}ka, $P_{19}$-\IeC {\v l}av\IeC {\'y} bedrov\IeC {\'y} k\IeC {\'l}b, $P_{20}$-\IeC {\v l}av\IeC {\'e} koleno, $P_{21}$-\IeC {\v l}av\IeC {\'a} p\IeC {\"a}ta, $P_{22}$-\IeC {\v l}av\IeC {\'a} \IeC {\v s}pi\IeC {\v c}ka.\relax }}{8}}
\newlabel{img:model_kostry}{{2.2}{8}}
\@writefile{toc}{\contentsline {section}{\numberline {2.4}Reprezent\IeC {\'a}cia ch\IeC {\^o}dze}{9}}
\newlabel{section:reprezentacia_chodze}{{2.4}{9}}
\@writefile{lof}{\contentsline {figure}{\numberline {2.3}{\ignorespaces Sekvencia reprezentovanej ch\IeC {\^o}dze.\relax }}{10}}
\newlabel{img:sekvencia_chodze}{{2.3}{10}}
\@writefile{toc}{\contentsline {section}{\numberline {2.5}Parametre ch\IeC {\^o}dze}{11}}
\newlabel{section:param_chodze}{{2.5}{11}}
\@writefile{toc}{\contentsline {subsection}{\numberline {2.5.1}Fyziologick\IeC {\'e} parametre}{11}}
\newlabel{eq:vzdialenost_bodov}{{2.1}{12}}
\newlabel{eq:dlzky_koncatin}{{2.2}{12}}
\@writefile{lot}{\contentsline {table}{\numberline {2.1}{\ignorespaces Postupnosti k\IeC {\'l}bov.\relax }}{12}}
\newlabel{table:zoznam_klbov}{{2.1}{12}}
\@writefile{toc}{\contentsline {subsection}{\numberline {2.5.2}Pohybov\IeC {\'e} parametre}{13}}
\@writefile{lot}{\contentsline {table}{\numberline {2.2}{\ignorespaces Zoznam pohybov\IeC {\'y}ch parametrov.\relax }}{13}}
\newlabel{tab:dynamicke_atributy}{{2.2}{13}}
\@writefile{toc}{\contentsline {subsubsection}{R\IeC {\'y}chlos\IeC {\v t} ch\IeC {\^o}dze}{14}}
\@writefile{toc}{\contentsline {subsubsection}{D\IeC {\'l}\IeC {\v z}ka kroku}{14}}
\@writefile{lof}{\contentsline {figure}{\numberline {2.4}{\ignorespaces D\IeC {\'l}\IeC {\v z}ka kroku \IeC {\v l}avej nohy.\relax }}{15}}
\newlabel{img:dlzka_kroku}{{2.4}{15}}
\citation{linear_regress}
\@writefile{toc}{\contentsline {subsubsection}{\IeC {\v S}\IeC {\'\i }rka krokov}{16}}
\@writefile{lof}{\contentsline {figure}{\numberline {2.5}{\ignorespaces \IeC {\v S}\IeC {\'\i }rka kroku - poh\IeC {\v l}ad z hora.\relax }}{16}}
\newlabel{img:sirka_kroku}{{2.5}{16}}
\@writefile{toc}{\contentsline {subsubsection}{Variancia}{17}}
\newlabel{eq:var}{{2.3}{17}}
\citation{mse}
\citation{linear_regress}
\@writefile{lof}{\contentsline {figure}{\numberline {2.6}{\ignorespaces Variancia hlavy po osi X.\relax }}{18}}
\newlabel{img:variancia_hlava}{{2.6}{18}}
\@writefile{lof}{\contentsline {figure}{\numberline {2.7}{\ignorespaces Line\IeC {\'a}rna regresia $\mathaccentV {hat}05E{y}$ a stredn\IeC {\'a} hodnota $\mu $.\relax }}{18}}
\newlabel{img:lin_reg}{{2.7}{18}}
\newlabel{eq:mse}{{2.4}{19}}
\@writefile{toc}{\contentsline {subsection}{\numberline {2.5.3}\IeC {\v C}asovo z\IeC {\'a}visl\IeC {\'e} parametre}{19}}
\@writefile{lot}{\contentsline {table}{\numberline {2.3}{\ignorespaces Zoznam \IeC {\v c}asovo z\IeC {\'a}visl\IeC {\'y}ch parametrov.\relax }}{19}}
\newlabel{table:cas_atributy}{{2.3}{19}}
\@writefile{toc}{\contentsline {subsubsection}{Zr\IeC {\'y}chlenie}{20}}
\newlabel{eq:zrychlenie}{{2.5}{20}}
\newlabel{eq:rychlost}{{2.6}{20}}
\citation{signal_smooth}
\@writefile{lof}{\contentsline {figure}{\numberline {2.8}{\ignorespaces Zr\IeC {\'y}chlenie bedrov\IeC {\'e}ho k\IeC {\'l}bu - p\IeC {\^o}vodn\IeC {\'y} sign\IeC {\'a}l.\relax }}{21}}
\newlabel{img:zrychlenie_nefiltrovane}{{2.8}{21}}
\newlabel{eq:signal_triangular_smooth}{{2.7}{21}}
\citation{obrazok_jeden}
\citation{obrazok_jeden}
\@writefile{lof}{\contentsline {figure}{\numberline {2.9}{\ignorespaces Zr\IeC {\'y}chlenie bedrov\IeC {\'e}ho k\IeC {\'l}bu - vyhladen\IeC {\'y} sign\IeC {\'a}l.\relax }}{22}}
\newlabel{img:zrychlenie_vyhladene}{{2.9}{22}}
\@writefile{toc}{\contentsline {subsubsection}{Rot\IeC {\'a}cie ramien}{22}}
\@writefile{lof}{\contentsline {figure}{\numberline {2.10}{\ignorespaces Horizont\IeC {\'a}lna (a) a vertik\IeC {\'a}lna (b) rot\IeC {\'a}cia ramien \cite  {obrazok_jeden}.\relax }}{22}}
\newlabel{img:shoulder_rot_img}{{2.10}{22}}
\citation{signal_smooth}
\newlabel{eq:smerovy_vektor}{{2.8}{23}}
\newlabel{eq:hor_rot}{{2.9}{23}}
\newlabel{eq:vert_rot}{{2.10}{23}}
\@writefile{lof}{\contentsline {figure}{\numberline {2.11}{\ignorespaces Ve\IeC {\v l}kos\IeC {\v t} vertik\IeC {\'a}lnej rot\IeC {\'a}cie ramien.\relax }}{23}}
\newlabel{img:vert_rot_graf}{{2.11}{23}}
\@writefile{toc}{\contentsline {subsubsection}{Vzdialenosti}{24}}
\@writefile{lof}{\contentsline {figure}{\numberline {2.12}{\ignorespaces Vzdialenos\IeC {\v t} piat\relax }}{24}}
\newlabel{img:vzdialenost_piat}{{2.12}{24}}
\@writefile{toc}{\contentsline {subsubsection}{N\IeC {\'a}klon a ohyb}{25}}
\@writefile{lof}{\contentsline {figure}{\numberline {2.13}{\ignorespaces Ohyb nohy.\relax }}{25}}
\newlabel{img:ohyb_klbu}{{2.13}{25}}
\newlabel{eq:ohyb_nohy}{{2.11}{25}}
\@writefile{lof}{\contentsline {figure}{\numberline {2.14}{\ignorespaces Ohyb pravej nohy.\relax }}{26}}
\newlabel{img:ohyb_klbu_graf}{{2.14}{26}}
\@writefile{toc}{\contentsline {section}{\numberline {2.6}Porovn\IeC {\'a}vanie hodn\IeC {\^o}t}{26}}
\newlabel{chap:porovnavanie_hodnot}{{2.6}{26}}
\citation{vector_dot_product}
\citation{body_prop}
\citation{dct}
\@writefile{toc}{\contentsline {subsection}{\numberline {2.6.1}Porovn\IeC {\'a}vanie fyziologick\IeC {\'y}ch a pohybov\IeC {\'y}ch parametrov}{27}}
\newlabel{eq:relative_error}{{2.12}{27}}
\@writefile{toc}{\contentsline {subsection}{\numberline {2.6.2}Porovn\IeC {\'a}vanie \IeC {\v c}asovo z\IeC {\'a}visl\IeC {\'y}ch parametrov}{28}}
\newlabel{eq:dct}{{2.13}{28}}
\citation{fft}
\citation{xcorr}
\@writefile{lof}{\contentsline {figure}{\numberline {2.15}{\ignorespaces Diskr\IeC {\'e}tna kos\IeC {\'\i }nusova transform\IeC {\'a}cia sign\IeC {\'a}lov zr\IeC {\'y}chlenia bedier.\relax }}{29}}
\newlabel{img:dct_grafy}{{2.15}{29}}
\newlabel{eq:xcorr}{{2.14}{30}}
\citation{pca}
\@writefile{toc}{\contentsline {section}{\numberline {2.7}Anal\IeC {\'y}za parametrov}{31}}
\@writefile{toc}{\contentsline {subsection}{\numberline {2.7.1}Anal\IeC {\'y}za fyziologick\IeC {\'y}ch a pohybov\IeC {\'y}ch parametrov}{31}}
\@writefile{lof}{\contentsline {figure}{\numberline {2.16}{\ignorespaces Uk\IeC {\'a}\IeC {\v z}ka princ\IeC {\'\i }pu PCA met\IeC {\'o}dy.\relax }}{32}}
\newlabel{img:pca_graf}{{2.16}{32}}
\newlabel{eq:cov}{{2.15}{33}}
\citation{matlab}
\newlabel{eq:cov_matrix}{{2.16}{34}}
\@writefile{lof}{\contentsline {figure}{\numberline {2.17}{\ignorespaces Diagon\IeC {\'a}lna matica reprezentuj\IeC {\'u}ca vypo\IeC {\v c}\IeC {\'\i }tan\IeC {\'e} vlastn\IeC {\'e} \IeC {\v c}\IeC {\'\i }sla.\relax }}{35}}
\newlabel{img:vl_cisla}{{2.17}{35}}
\@writefile{lot}{\contentsline {table}{\numberline {2.4}{\ignorespaces V\IeC {\'y}sledok anal\IeC {\'y}zy fyziologick\IeC {\'y}ch a pohybov\IeC {\'y}ch parametrov.\relax }}{35}}
\newlabel{table:zoznam_pca_vysledok}{{2.4}{35}}
\citation{mds}
\citation{mds2}
\citation{mds2}
\citation{mds2}
\@writefile{toc}{\contentsline {subsection}{\numberline {2.7.2}Anal\IeC {\'y}za \IeC {\v c}asovo z\IeC {\'a}visl\IeC {\'y}ch parametrov}{36}}
\citation{mds2}
\citation{mds2}
\@writefile{lof}{\contentsline {figure}{\numberline {2.18}{\ignorespaces Matica vzdialenost\IeC {\'\i } medzi mestami v USA. \cite  {mds2}\relax }}{37}}
\newlabel{img:usa_mesta}{{2.18}{37}}
\@writefile{lof}{\contentsline {figure}{\numberline {2.19}{\ignorespaces Mapa miest v USA vytvoren\IeC {\'a} pomocou MDS met\IeC {\'o}dy. \cite  {mds2}\relax }}{37}}
\newlabel{img:usa_mapa}{{2.19}{37}}
\citation{mds3}
\@writefile{lot}{\contentsline {table}{\numberline {2.5}{\ignorespaces \IeC {\v C}asovo z\IeC {\'a}visl\IeC {\'e} parametre zoraden\IeC {\'e} pod\IeC {\v l}a relevantnosti.\relax }}{39}}
\newlabel{table:mds_zoradenie}{{2.5}{39}}
\@writefile{lot}{\contentsline {table}{\numberline {2.6}{\ignorespaces \IeC {\v C}asovo z\IeC {\'a}visl\IeC {\'e} parametre zoraden\IeC {\'e} pod\IeC {\v l}a relevantnosti.\relax }}{40}}
\newlabel{table:mds_zoradenie2}{{2.6}{40}}
\@writefile{toc}{\contentsline {chapter}{\numberline {3}Implement\IeC {\'a}cia}{41}}
\@writefile{lof}{\addvspace {10\p@ }}
\@writefile{lot}{\addvspace {10\p@ }}
\newlabel{chap:implementacia}{{3}{41}}
\@writefile{toc}{\contentsline {section}{\numberline {3.1}N\IeC {\'a}vrh syst\IeC {\'e}mu}{41}}
\@writefile{lof}{\contentsline {figure}{\numberline {3.1}{\ignorespaces N\IeC {\'a}vrh syst\IeC {\'e}mu.\relax }}{42}}
\newlabel{img:uml_cely_system}{{3.1}{42}}
\@writefile{toc}{\contentsline {subsection}{\numberline {3.1.1}Syntaktick\IeC {\'y} analyz\IeC {\'a}tor}{42}}
\@writefile{toc}{\contentsline {subsection}{\numberline {3.1.2}Filter ch\IeC {\^o}dze}{42}}
\@writefile{lof}{\contentsline {figure}{\numberline {3.2}{\ignorespaces Uk\IeC {\'a}\IeC {\v z}ka filtrovania pohybu po rovnej trajekt\IeC {\'o}ri\IeC {\'\i }.\relax }}{43}}
\newlabel{img:filter_chodze}{{3.2}{43}}
\@writefile{toc}{\contentsline {subsection}{\numberline {3.1.3}Prehr\IeC {\'a}va\IeC {\v c}}{44}}
\@writefile{lof}{\contentsline {figure}{\numberline {3.3}{\ignorespaces Prehr\IeC {\'a}va\IeC {\v c} bvh z\IeC {\'a}znamov.\relax }}{45}}
\newlabel{img:player}{{3.3}{45}}
\@writefile{toc}{\contentsline {subsection}{\numberline {3.1.4}Deskriptor}{45}}
\@writefile{toc}{\contentsline {subsection}{\numberline {3.1.5}Analyz\IeC {\'a}tor ch\IeC {\^o}dze}{46}}
\@writefile{lof}{\contentsline {figure}{\numberline {3.4}{\ignorespaces Uk\IeC {\'a}\IeC {\v z}ka n\IeC {\'a}stroja pre analyzovanie ch\IeC {\^o}dze.\relax }}{46}}
\newlabel{img:analyzator}{{3.4}{46}}
\citation{zingchart}
\@writefile{toc}{\contentsline {subsection}{\numberline {3.1.6}Porovnanie}{47}}
\newlabel{eq:celkova_zhoda}{{3.1}{48}}
\@writefile{toc}{\contentsline {section}{\numberline {3.2}N\IeC {\'a}vrh datab\IeC {\'a}zy}{48}}
\@writefile{lof}{\contentsline {figure}{\numberline {3.5}{\ignorespaces \IeC {\v S}trukt\IeC {\'u}ra datab\IeC {\'a}zy.\relax }}{48}}
\newlabel{img:db_cela}{{3.5}{48}}
\citation{json}
\@writefile{toc}{\contentsline {chapter}{\numberline {4}Valid\IeC {\'a}cia}{50}}
\@writefile{lof}{\addvspace {10\p@ }}
\@writefile{lot}{\addvspace {10\p@ }}
\newlabel{chap:testovanie}{{4}{50}}
\@writefile{lot}{\contentsline {table}{\numberline {4.1}{\ignorespaces V\IeC {\'y}sledky valid\IeC {\'a}cie.\relax }}{51}}
\newlabel{table:vahy}{{4.1}{51}}
\@writefile{toc}{\contentsline {chapter}{\numberline {5}Z\IeC {\'a}ver}{53}}
\@writefile{lof}{\addvspace {10\p@ }}
\@writefile{lot}{\addvspace {10\p@ }}
\bibcite{temporal_spatial_factors}{1}
\bibcite{human_classification_gait}{2}
\bibcite{body_prop}{3}
\bibcite{dct}{4}
\bibcite{fft}{5}
\bibcite{vector_dot_product}{6}
\bibcite{mocap_data}{7}
\bibcite{mse}{8}
\bibcite{linear_regress}{9}
\bibcite{pca}{10}
\bibcite{mocap_lib_2}{11}
\bibcite{mds}{12}
\bibcite{mds2}{13}
\bibcite{mds3}{14}
\bibcite{bvh_stranka}{15}
\bibcite{signal_smooth}{16}
\bibcite{xcorr}{17}
\bibcite{matlab}{18}
\bibcite{zingchart}{19}
\bibcite{obrazok_jeden}{20}
\bibcite{obrazok_mocap_pipeline}{21}
\bibcite{json}{22}
\citation{*}
\citation{obrazok_mocap_pipeline}
\citation{obrazok_jeden}
\citation{mds2}
\citation{mds2}
